{
  "host": "localhost",
  "port": 3030,
  "public": "../public/",
  "authentication": {
    "entity": "user",
    "service": "users",
    "secret": "6319KDP7YjeZkJ8t5poWsWS5v7s=",
    "authStrategies": ["jwt", "local"],
    "jwtOptions": {
      "header": {
        "typ": "access"
      },
      "audience": "https://yourdomain.com",
      "issuer": "feathers",
      "algorithm": "HS256",
      "expiresIn": "1d"
    },
    "local": {
      "usernameField": "email",
      "passwordField": "password"
    }
  },
  "mongodb": "mongodb://localhost:27017/procars",
  "BACKOFFICE_URL": "http://localhost:8081",
  "PWA_URL": "http://localhost:8080"
}
